<?xml version="1.0" encoding="UTF-8"?>
<svg width="11.906mm" height="11.906mm" version="1.1" viewBox="0 0 11.906 11.906" xmlns="http://www.w3.org/2000/svg" xmlns:cc="http://creativecommons.org/ns#" xmlns:dc="http://purl.org/dc/elements/1.1/" xmlns:rdf="http://www.w3.org/1999/02/22-rdf-syntax-ns#">
 <metadata>
  <rdf:RDF>
   <cc:Work rdf:about="">
    <dc:format>image/svg+xml</dc:format>
    <dc:type rdf:resource="http://purl.org/dc/dcmitype/StillImage"/>
    <dc:title/>
   </cc:Work>
  </rdf:RDF>
 </metadata>
 <g transform="translate(-107.44 -136.17)">
  <g transform="translate(17.906 31.715)">
   <rect x="89.534" y="104.45" width="11.906" height="11.906" fill="#d34f2b" fill-rule="evenodd" stroke-width=".26458"/>
   <a transform="matrix(.97222 0 0 .97222 3.81 4.2243)">
    <rect x="89.534" y="104.45" width="9.525" height="9.525" ry="0" fill="#fff" stroke-width=".25135"/>
   </a>
   <g transform="translate(.59484 -.015246)" fill="#d34f2b" aria-label="1">
    <path d="m96.505 106.91v7.0225h-1.6254v-5.1897l-1.6013 0.46785v-1.2347l3.0772-1.0659z" fill="#d34f2b" stroke-width=".26458"/>
   </g>
  </g>
 </g>
</svg>
