<?xml version="1.0" encoding="UTF-8" standalone="no"?>
<svg
   xmlns:dc="http://purl.org/dc/elements/1.1/"
   xmlns:cc="http://creativecommons.org/ns#"
   xmlns:rdf="http://www.w3.org/1999/02/22-rdf-syntax-ns#"
   xmlns:svg="http://www.w3.org/2000/svg"
   xmlns="http://www.w3.org/2000/svg"
   xmlns:sodipodi="http://sodipodi.sourceforge.net/DTD/sodipodi-0.dtd"
   xmlns:inkscape="http://www.inkscape.org/namespaces/inkscape"
   width="210mm"
   height="297mm"
   viewBox="0 0 210 297"
   version="1.1"
   id="svg8"
   inkscape:version="1.0.1 (3bc2e813f5, 2020-09-07)"
   sodipodi:docname="zones.svg">
  <defs
     id="defs2" />
  <sodipodi:namedview
     id="base"
     pagecolor="#ffffff"
     bordercolor="#666666"
     borderopacity="1.0"
     inkscape:pageopacity="0.0"
     inkscape:pageshadow="2"
     inkscape:zoom="4.55"
     inkscape:cx="307.26847"
     inkscape:cy="416.69616"
     inkscape:document-units="mm"
     inkscape:current-layer="layer1"
     inkscape:document-rotation="0"
     showgrid="false"
     inkscape:snap-object-midpoints="true"
     inkscape:window-width="1920"
     inkscape:window-height="1010"
     inkscape:window-x="0"
     inkscape:window-y="0"
     inkscape:window-maximized="1" />
  <metadata
     id="metadata5">
    <rdf:RDF>
      <cc:Work
         rdf:about="">
        <dc:format>image/svg+xml</dc:format>
        <dc:type
           rdf:resource="http://purl.org/dc/dcmitype/StillImage" />
        <dc:title></dc:title>
      </cc:Work>
    </rdf:RDF>
  </metadata>
  <g
     inkscape:label="Layer 1"
     inkscape:groupmode="layer"
     id="layer1">
    <g
       id="g955"
       transform="translate(-23.388003,1.3821996)">
      <rect
         style="fill:#539ce2;fill-opacity:1;fill-rule:evenodd;stroke-width:0.264583"
         id="rect12"
         width="11.90625"
         height="11.90625"
         x="89.533836"
         y="104.45113" />
      <a
         id="a843"
         transform="matrix(0.97222226,0,0,0.97222226,3.8099634,4.2243322)">
        <rect
           style="fill:#ffffff;fill-opacity:1;stroke-width:0.251354"
           id="rect839"
           width="9.5249996"
           height="9.5249996"
           x="89.533836"
           y="104.45113"
           ry="0" />
      </a>
      <g
         aria-label="1"
         id="text848"
         style="font-style:normal;font-weight:normal;font-size:9.87778px;line-height:1.25;font-family:sans-serif;fill:#539ce2;fill-opacity:1;stroke:none;stroke-width:0.264583"
         transform="translate(0.59483886,-0.01524627)">
        <path
           d="m 96.505461,106.90826 v 7.02249 h -1.625397 v -5.1897 l -1.60128,0.46785 v -1.23472 l 3.077159,-1.06592 z"
           style="font-style:normal;font-variant:normal;font-weight:900;font-stretch:normal;font-size:9.87778px;font-family:Roboto;-inkscape-font-specification:'Roboto Heavy';fill:#539ce2;fill-opacity:1;stroke-width:0.264583"
           id="path934" />
      </g>
    </g>
    <g
       id="g962"
       transform="translate(-27.308777,1.5337118)">
      <rect
         style="fill:#539ce2;fill-opacity:1;fill-rule:evenodd;stroke-width:0.264583"
         id="rect12-4"
         width="11.90625"
         height="11.90625"
         x="106.68378"
         y="104.29962" />
      <a
         id="a843-9"
         transform="matrix(0.97222225,0,0,0.97222225,20.959906,4.0728222)">
        <rect
           style="fill:#ffffff;fill-opacity:1;stroke-width:0.251354"
           id="rect839-0"
           width="9.5249996"
           height="9.5249996"
           x="89.533836"
           y="104.45113"
           ry="0" />
      </a>
      <g
         aria-label="2"
         id="text848-9"
         style="font-style:normal;font-weight:normal;font-size:9.87777px;line-height:1.25;font-family:sans-serif;fill:#539ce2;fill-opacity:1;stroke:none;stroke-width:0.264583"
         transform="translate(0.20176686,0.03539658)">
        <path
           d="m 114.95763,112.52521 v 1.25402 h -4.9003 v -1.06109 l 2.25723,-2.37298 q 0.44373,-0.51125 0.63665,-0.87299 0.19775,-0.36655 0.19775,-0.63665 0,-0.92604 -0.7717,-0.92604 -0.38103,0 -0.60771,0.31833 -0.22669,0.3135 -0.22669,0.78617 h -1.63022 q 0,-0.96945 0.68971,-1.66398 0.69453,-0.69453 1.8135,-0.69453 1.16237,0 1.76044,0.54019 0.60289,0.53536 0.60289,1.49517 0,0.73311 -0.44855,1.36976 -0.44373,0.63666 -1.23472,1.41801 l -0.90675,1.04661 z"
           style="font-style:normal;font-variant:normal;font-weight:900;font-stretch:normal;font-size:9.87777px;font-family:Roboto;-inkscape-font-specification:'Roboto Heavy';fill:#539ce2;fill-opacity:1;stroke-width:0.264583"
           id="path937" />
      </g>
    </g>
    <g
       id="g969"
       transform="translate(-29.547567,1.4755605)">
      <rect
         style="fill:#539ce2;fill-opacity:1;fill-rule:evenodd;stroke-width:0.264583"
         id="rect12-4-7"
         width="11.90625"
         height="11.90625"
         x="122.15173"
         y="104.35777" />
      <a
         id="a843-9-7"
         transform="matrix(0.97222225,0,0,0.97222225,36.427855,4.1309724)">
        <rect
           style="fill:#ffffff;fill-opacity:1;stroke-width:0.251354"
           id="rect839-0-1"
           width="9.5249996"
           height="9.5249996"
           x="89.533836"
           y="104.45113"
           ry="0" />
      </a>
      <g
         aria-label="3"
         id="text848-9-1"
         style="font-style:normal;font-weight:normal;font-size:9.87777px;line-height:1.25;font-family:sans-serif;fill:#539ce2;fill-opacity:1;stroke:none;stroke-width:0.264583"
         transform="translate(0.23069705,-0.01283214)">
        <path
           d="m 127.79699,110.85669 h -0.791 v -1.21061 h 0.791 q 0.45337,0 0.67041,-0.23633 0.21704,-0.24116 0.21704,-0.65595 0,-0.3135 -0.20257,-0.54984 -0.19775,-0.23633 -0.62701,-0.23633 -0.29421,0 -0.54501,0.17363 -0.2508,0.17364 -0.2508,0.48232 h -1.63022 q 0,-0.89228 0.71382,-1.39871 0.71383,-0.51125 1.65916,-0.51125 1.11896,0 1.8135,0.51125 0.69453,0.51125 0.69453,1.49517 0,0.47749 -0.29421,0.87781 -0.29422,0.40032 -0.78617,0.63183 0.55465,0.20257 0.87298,0.61736 0.32315,0.40996 0.32315,1.01768 0,0.98874 -0.75241,1.52893 -0.75241,0.54019 -1.87137,0.54019 -0.58842,0 -1.15755,-0.21222 -0.56913,-0.21221 -0.94534,-0.66559 -0.3762,-0.45337 -0.3762,-1.17202 h 1.63022 q 0,0.33762 0.26527,0.56913 0.2701,0.22669 0.63665,0.22669 0.44855,0 0.69453,-0.24598 0.24598,-0.24598 0.24598,-0.60289 0,-0.53055 -0.26527,-0.75241 -0.26527,-0.22186 -0.73311,-0.22186 z"
           style="font-style:normal;font-variant:normal;font-weight:900;font-stretch:normal;font-size:9.87777px;font-family:Roboto;-inkscape-font-specification:'Roboto Heavy';fill:#539ce2;fill-opacity:1;stroke-width:0.264583"
           id="path940" />
      </g>
    </g>
    <g
       id="g948"
       transform="translate(-19.913038,1.5891698)">
      <rect
         style="fill:#539ce2;fill-opacity:1;fill-rule:evenodd;stroke-width:0.264583"
         id="rect12-9"
         width="11.90625"
         height="11.90625"
         x="72.829704"
         y="104.24416" />
      <a
         id="a843-7"
         transform="matrix(0.97222225,0,0,0.97222225,-12.894165,4.0173569)">
        <rect
           style="fill:#ffffff;fill-opacity:1;stroke-width:0.251354"
           id="rect839-7"
           width="9.5249996"
           height="9.5249996"
           x="89.533836"
           y="104.45113"
           ry="0" />
      </a>
      <g
         aria-label="0"
         id="text848-6"
         style="font-style:normal;font-weight:normal;font-size:9.87777px;line-height:1.25;font-family:sans-serif;fill:#db2727;fill-opacity:1;stroke:none;stroke-width:0.264583"
         transform="translate(0.15111378,-0.01524149)">
        <path
           d="m 81.079454,109.57106 v 1.28295 q 0,1.51928 -0.680061,2.24275 -0.680062,0.72347 -1.760443,0.72347 -1.085204,0 -1.770088,-0.72347 -0.684885,-0.72347 -0.684885,-2.24275 v -1.28295 q 0,-1.51929 0.680061,-2.24276 0.680062,-0.72347 1.765266,-0.72347 1.080381,0 1.765266,0.72347 0.684884,0.72347 0.684884,2.24276 z m -1.625395,1.4807 v -1.6881 q 0,-0.83922 -0.221864,-1.17202 -0.221864,-0.3328 -0.602891,-0.3328 -0.381027,0 -0.602891,0.3328 -0.217041,0.3328 -0.217041,1.17202 v 1.6881 q 0,0.85369 0.221864,1.18649 0.221864,0.32797 0.607714,0.32797 0.376204,0 0.593245,-0.32797 0.221864,-0.3328 0.221864,-1.18649 z"
           style="font-style:normal;font-variant:normal;font-weight:900;font-stretch:normal;font-size:9.87777px;font-family:Roboto;-inkscape-font-specification:'Roboto Heavy';fill:#db2727;fill-opacity:1;stroke-width:0.264583"
           id="path931" />
      </g>
    </g>
  </g>
</svg>
